<!--This work is licensed under a Creative Commons Attribution-ShareAlike 4.0 International License (CC BY-SA) with Design Exception 1.0-->
<eagle version="7.1.0">
<drawing>
<settings>
<setting alwaysvectorfont="no"/>
<setting verticaltext="up"/>
</settings>
<grid distance="0.1" unitdist="inch" unit="inch" style="lines" multiple="1" display="no" altdistance="0.01" altunitdist="inch" altunit="inch"/>
<layers>
<layer number="1" name="Top" color="4" fill="1" visible="yes" active="yes"/>
<layer number="16" name="Bottom" color="1" fill="1" visible="yes" active="yes"/>
<layer number="17" name="Pads" color="2" fill="1" visible="yes" active="yes"/>
<layer number="18" name="Vias" color="2" fill="1" visible="yes" active="yes"/>
<layer number="19" name="Unrouted" color="6" fill="1" visible="yes" active="yes"/>
<layer number="20" name="Dimension" color="15" fill="1" visible="yes" active="yes"/>
<layer number="21" name="tPlace" color="7" fill="1" visible="yes" active="yes"/>
<layer number="22" name="bPlace" color="7" fill="1" visible="yes" active="yes"/>
<layer number="23" name="tOrigins" color="15" fill="1" visible="yes" active="yes"/>
<layer number="24" name="bOrigins" color="15" fill="1" visible="yes" active="yes"/>
<layer number="25" name="tNames" color="7" fill="1" visible="yes" active="yes"/>
<layer number="26" name="bNames" color="7" fill="1" visible="yes" active="yes"/>
<layer number="27" name="tValues" color="7" fill="1" visible="yes" active="yes"/>
<layer number="28" name="bValues" color="7" fill="1" visible="yes" active="yes"/>
<layer number="29" name="tStop" color="7" fill="3" visible="yes" active="yes"/>
<layer number="30" name="bStop" color="7" fill="6" visible="no" active="yes"/>
<layer number="31" name="tCream" color="7" fill="4" visible="yes" active="yes"/>
<layer number="32" name="bCream" color="7" fill="5" visible="no" active="yes"/>
<layer number="33" name="tFinish" color="6" fill="3" visible="no" active="yes"/>
<layer number="34" name="bFinish" color="6" fill="6" visible="no" active="yes"/>
<layer number="35" name="tGlue" color="7" fill="4" visible="no" active="yes"/>
<layer number="36" name="bGlue" color="7" fill="5" visible="no" active="yes"/>
<layer number="37" name="tTest" color="7" fill="1" visible="no" active="yes"/>
<layer number="38" name="bTest" color="7" fill="1" visible="no" active="yes"/>
<layer number="39" name="tKeepout" color="4" fill="11" visible="yes" active="yes"/>
<layer number="40" name="bKeepout" color="1" fill="11" visible="yes" active="yes"/>
<layer number="41" name="tRestrict" color="4" fill="10" visible="yes" active="yes"/>
<layer number="42" name="bRestrict" color="1" fill="10" visible="yes" active="yes"/>
<layer number="43" name="vRestrict" color="2" fill="10" visible="yes" active="yes"/>
<layer number="44" name="Drills" color="7" fill="1" visible="no" active="yes"/>
<layer number="45" name="Holes" color="7" fill="1" visible="no" active="yes"/>
<layer number="46" name="Milling" color="3" fill="1" visible="no" active="yes"/>
<layer number="47" name="Measures" color="7" fill="1" visible="no" active="yes"/>
<layer number="48" name="Document" color="7" fill="1" visible="yes" active="yes"/>
<layer number="49" name="Reference" color="7" fill="1" visible="yes" active="yes"/>
<layer number="51" name="tDocu" color="7" fill="1" visible="yes" active="yes"/>
<layer number="52" name="bDocu" color="7" fill="1" visible="yes" active="yes"/>
<layer number="90" name="Modules" color="5" fill="1" visible="yes" active="yes"/>
<layer number="91" name="Nets" color="2" fill="1" visible="yes" active="yes"/>
<layer number="92" name="Busses" color="1" fill="1" visible="yes" active="yes"/>
<layer number="93" name="Pins" color="2" fill="1" visible="yes" active="yes"/>
<layer number="94" name="Symbols" color="4" fill="1" visible="yes" active="yes"/>
<layer number="95" name="Names" color="7" fill="1" visible="yes" active="yes"/>
<layer number="96" name="Values" color="7" fill="1" visible="yes" active="yes"/>
<layer number="97" name="Info" color="7" fill="1" visible="yes" active="yes"/>
<layer number="98" name="Guide" color="6" fill="1" visible="yes" active="yes"/>
</layers>
<library>
<packages>
<package name="ALLEGRO_ACS70331EESATR-005U3">
<wire x1="-1.5" y1="1.5" x2="1.5" y2="1.5" width="0.1524" layer="51"/>
<wire x1="1.5" y1="1.5" x2="1.5" y2="-1.5" width="0.1524" layer="51"/>
<wire x1="1.5" y1="-1.5" x2="-1.5" y2="-1.5" width="0.1524" layer="51"/>
<wire x1="-1.5" y1="-1.5" x2="-1.5" y2="1.5" width="0.1524" layer="51"/>
<wire x1="-1.5" y1="1.2" x2="-1.5" y2="1.5" width="0.1524" layer="21"/>
<wire x1="-1.5" y1="1.5" x2="-0.3" y2="1.5" width="0.1524" layer="21"/>
<wire x1="1.1" y1="1.5" x2="1.5" y2="1.5" width="0.1524" layer="21"/>
<wire x1="1.5" y1="1.5" x2="1.5" y2="1.2" width="0.1524" layer="21"/>
<wire x1="-1.5" y1="-1.2" x2="-1.5" y2="-1.5" width="0.1524" layer="21"/>
<wire x1="-1.5" y1="-1.5" x2="-0.3" y2="-1.5" width="0.1524" layer="21"/>
<wire x1="1.1" y1="-1.5" x2="1.5" y2="-1.5" width="0.1524" layer="21"/>
<wire x1="1.5" y1="-1.5" x2="1.5" y2="-1.2" width="0.1524" layer="21"/>
<circle x="-2.5" y="0.7" radius="0.075" width="0.15" layer="21"/>
<wire x1="-2.25" y1="2.125" x2="2.025" y2="2.125" width="0.05" layer="39"/>
<wire x1="2.025" y1="2.125" x2="2.025" y2="-2.2" width="0.05" layer="39"/>
<wire x1="2.025" y1="-2.2" x2="-2.25" y2="-2.2" width="0.05" layer="39"/>
<wire x1="-2.25" y1="-2.2" x2="-2.25" y2="2.125" width="0.05" layer="39"/>
<text x="-3.00531" y="3.00531" size="1.27225" layer="25">&gt;NAME</text>
<text x="-3.00567" y="-3.00567" size="1.2724" layer="27" align="top-left">&gt;VALUE</text>
<smd name="1" x="-1.35" y="0.7" dx="1.3" dy="0.4" layer="1"/>
<smd name="3" x="-1.35" y="-0.3" dx="1.3" dy="0.4" layer="1"/>
<smd name="5" x="0.15" y="-1.45" dx="0.85" dy="0.3" layer="1" rot="R270"/>
<smd name="6" x="0.65" y="-1.45" dx="0.85" dy="0.3" layer="1" rot="R270"/>
<smd name="7" x="1.35" y="-0.75" dx="0.85" dy="0.3" layer="1" rot="R180"/>
<smd name="8" x="1.35" y="-0.25" dx="0.85" dy="0.3" layer="1" rot="R180"/>
<smd name="9" x="1.35" y="0.25" dx="0.85" dy="0.3" layer="1" rot="R180"/>
<smd name="10" x="1.35" y="0.75" dx="0.85" dy="0.3" layer="1" rot="R180"/>
<smd name="11" x="0.65" y="1.45" dx="0.85" dy="0.3" layer="1" rot="R270"/>
<smd name="12" x="0.15" y="1.45" dx="0.85" dy="0.3" layer="1" rot="R270"/>
<smd name="2" x="-1.35" y="0.3" dx="1.3" dy="0.4" layer="1"/>
<smd name="4" x="-1.35" y="-0.7" dx="1.3" dy="0.4" layer="1"/>
</package>
</packages>
<symbols>
<symbol name="ACS70331EESATR-005U3">
<wire x1="-10.16" y1="10.16" x2="10.16" y2="10.16" width="0.41" layer="94"/>
<wire x1="10.16" y1="10.16" x2="10.16" y2="-10.16" width="0.41" layer="94"/>
<wire x1="10.16" y1="-10.16" x2="-10.16" y2="-10.16" width="0.41" layer="94"/>
<wire x1="-10.16" y1="-10.16" x2="-10.16" y2="10.16" width="0.41" layer="94"/>
<text x="-10.1803" y="11.1789" size="2.08633" layer="95" ratio="10" rot="SR0">&gt;NAME</text>
<text x="-10.1877" y="-14.1878" size="2.08688" layer="96" ratio="10" rot="SR0">&gt;VALUE</text>
<pin name="IP-" x="-15.24" y="-2.54" length="middle" direction="in"/>
<pin name="IP+" x="-15.24" y="2.54" length="middle" direction="in"/>
<pin name="GND" x="15.24" y="-7.62" length="middle" direction="pwr" rot="R180"/>
<pin name="VCC" x="15.24" y="7.62" length="middle" direction="pwr" rot="R180"/>
<pin name="VIOUT" x="15.24" y="0" length="middle" direction="out" rot="R180"/>
</symbol>
</symbols>
<devicesets>
<deviceset name="ACS70331EESATR-005U3" prefix="U">
<description>High Sensitivity, 1 Mhz, Gmr-Bas &lt;a href="https://pricing.snapeda.com/parts/ACS70331EESATR-005U3/Allegro%20MicroSystems%20LLC/view-part?ref=eda"&gt;Check prices&lt;/a&gt;</description>
<gates>
<gate name="G$1" symbol="ACS70331EESATR-005U3" x="0" y="0"/>
</gates>
<devices>
<device name="" package="ALLEGRO_ACS70331EESATR-005U3">
<connects>
<connect gate="G$1" pin="GND" pad="5"/>
<connect gate="G$1" pin="IP+" pad="1 2"/>
<connect gate="G$1" pin="IP-" pad="3 4"/>
<connect gate="G$1" pin="VCC" pad="12"/>
<connect gate="G$1" pin="VIOUT" pad="10"/>
</connects>
<technologies>
<technology name="">
<attribute name="Package" value="WFQFN-12 Allegro MicroSystems LLC"/>
<attribute name="Description" value="
Current Sensor 5A 1 Channel Hall Effect, Open Loop Unidirectional 12-PowerWQFN
"/>
<attribute name="MP" value="ACS70331EESATR-005U3"/>
<attribute name="Availability" value="Warning"/>
<attribute name="MF" value="Allegro MicroSystems LLC"/>
<attribute name="Price" value="None"/>
<attribute name="Purchase-URL" value="https://pricing.snapeda.com/search/part/ACS70331EESATR-005U3/?ref=eda"/>
</technology>
</technologies>
</device>
</devices>
</deviceset>
</devicesets>
</library>
</drawing>
</eagle>
