<!--This work is licensed under a Creative Commons Attribution-ShareAlike 4.0 International License (CC BY-SA) with Design Exception 1.0-->
<eagle version="7.1.0">
<drawing>
<settings>
<setting alwaysvectorfont="no"/>
<setting verticaltext="up"/>
</settings>
<grid distance="0.1" unitdist="inch" unit="inch" style="lines" multiple="1" display="no" altdistance="0.01" altunitdist="inch" altunit="inch"/>
<layers>
<layer number="1" name="Top" color="4" fill="1" visible="yes" active="yes"/>
<layer number="16" name="Bottom" color="1" fill="1" visible="yes" active="yes"/>
<layer number="17" name="Pads" color="2" fill="1" visible="yes" active="yes"/>
<layer number="18" name="Vias" color="2" fill="1" visible="yes" active="yes"/>
<layer number="19" name="Unrouted" color="6" fill="1" visible="yes" active="yes"/>
<layer number="20" name="Dimension" color="15" fill="1" visible="yes" active="yes"/>
<layer number="21" name="tPlace" color="7" fill="1" visible="yes" active="yes"/>
<layer number="22" name="bPlace" color="7" fill="1" visible="yes" active="yes"/>
<layer number="23" name="tOrigins" color="15" fill="1" visible="yes" active="yes"/>
<layer number="24" name="bOrigins" color="15" fill="1" visible="yes" active="yes"/>
<layer number="25" name="tNames" color="7" fill="1" visible="yes" active="yes"/>
<layer number="26" name="bNames" color="7" fill="1" visible="yes" active="yes"/>
<layer number="27" name="tValues" color="7" fill="1" visible="yes" active="yes"/>
<layer number="28" name="bValues" color="7" fill="1" visible="yes" active="yes"/>
<layer number="29" name="tStop" color="7" fill="3" visible="yes" active="yes"/>
<layer number="30" name="bStop" color="7" fill="6" visible="no" active="yes"/>
<layer number="31" name="tCream" color="7" fill="4" visible="yes" active="yes"/>
<layer number="32" name="bCream" color="7" fill="5" visible="no" active="yes"/>
<layer number="33" name="tFinish" color="6" fill="3" visible="no" active="yes"/>
<layer number="34" name="bFinish" color="6" fill="6" visible="no" active="yes"/>
<layer number="35" name="tGlue" color="7" fill="4" visible="no" active="yes"/>
<layer number="36" name="bGlue" color="7" fill="5" visible="no" active="yes"/>
<layer number="37" name="tTest" color="7" fill="1" visible="no" active="yes"/>
<layer number="38" name="bTest" color="7" fill="1" visible="no" active="yes"/>
<layer number="39" name="tKeepout" color="4" fill="11" visible="yes" active="yes"/>
<layer number="40" name="bKeepout" color="1" fill="11" visible="yes" active="yes"/>
<layer number="41" name="tRestrict" color="4" fill="10" visible="yes" active="yes"/>
<layer number="42" name="bRestrict" color="1" fill="10" visible="yes" active="yes"/>
<layer number="43" name="vRestrict" color="2" fill="10" visible="yes" active="yes"/>
<layer number="44" name="Drills" color="7" fill="1" visible="no" active="yes"/>
<layer number="45" name="Holes" color="7" fill="1" visible="no" active="yes"/>
<layer number="46" name="Milling" color="3" fill="1" visible="no" active="yes"/>
<layer number="47" name="Measures" color="7" fill="1" visible="no" active="yes"/>
<layer number="48" name="Document" color="7" fill="1" visible="yes" active="yes"/>
<layer number="49" name="Reference" color="7" fill="1" visible="yes" active="yes"/>
<layer number="51" name="tDocu" color="7" fill="1" visible="yes" active="yes"/>
<layer number="52" name="bDocu" color="7" fill="1" visible="yes" active="yes"/>
<layer number="90" name="Modules" color="5" fill="1" visible="yes" active="yes"/>
<layer number="91" name="Nets" color="2" fill="1" visible="yes" active="yes"/>
<layer number="92" name="Busses" color="1" fill="1" visible="yes" active="yes"/>
<layer number="93" name="Pins" color="2" fill="1" visible="yes" active="yes"/>
<layer number="94" name="Symbols" color="4" fill="1" visible="yes" active="yes"/>
<layer number="95" name="Names" color="7" fill="1" visible="yes" active="yes"/>
<layer number="96" name="Values" color="7" fill="1" visible="yes" active="yes"/>
<layer number="97" name="Info" color="7" fill="1" visible="yes" active="yes"/>
<layer number="98" name="Guide" color="6" fill="1" visible="yes" active="yes"/>
</layers>
<library>
<packages>
<package name="BEL_SS-52300-001">
<text x="-6" y="6.02" size="1.27" layer="25">&gt;NAME</text>
<text x="-6" y="4.55" size="1.27" layer="27">&gt;VALUE</text>
<circle x="1.29" y="4.26" radius="0.1" width="0.2" layer="21"/>
<circle x="1.29" y="4.26" radius="0.1" width="0.2" layer="51"/>
<wire x1="-6.02" y1="-12.99" x2="6.02" y2="-12.99" width="0.127" layer="51"/>
<wire x1="6.02" y1="-12.99" x2="6.02" y2="3.51" width="0.127" layer="51"/>
<wire x1="6.02" y1="3.51" x2="-6.02" y2="3.51" width="0.127" layer="51"/>
<wire x1="-6.02" y1="3.51" x2="-6.02" y2="-12.99" width="0.127" layer="51"/>
<wire x1="-6.02" y1="-12.99" x2="6.02" y2="-12.99" width="0.127" layer="21"/>
<wire x1="6.02" y1="-12.99" x2="6.02" y2="-4.715" width="0.127" layer="21"/>
<wire x1="6.02" y1="-0.705" x2="6.02" y2="3.51" width="0.127" layer="21"/>
<wire x1="6.02" y1="3.51" x2="-6.02" y2="3.51" width="0.127" layer="21"/>
<wire x1="-6.02" y1="3.51" x2="-6.02" y2="-0.705" width="0.127" layer="21"/>
<wire x1="-6.02" y1="-4.715" x2="-6.02" y2="-12.99" width="0.127" layer="21"/>
<wire x1="-7.955" y1="-13.24" x2="7.955" y2="-13.24" width="0.05" layer="39"/>
<wire x1="7.955" y1="-13.24" x2="7.955" y2="3.76" width="0.05" layer="39"/>
<wire x1="7.955" y1="3.76" x2="-7.955" y2="3.76" width="0.05" layer="39"/>
<wire x1="-7.955" y1="3.76" x2="-7.955" y2="-13.24" width="0.05" layer="39"/>
<pad name="2" x="-1.25" y="2" drill="0.97"/>
<pad name="1" x="1.25" y="2" drill="0.97" shape="square"/>
<pad name="3" x="-1.25" y="0" drill="0.97"/>
<pad name="4" x="1.25" y="0" drill="0.97"/>
<pad name="S1" x="-6.02" y="-2.71" drill="2.35"/>
<pad name="S2" x="6.02" y="-2.71" drill="2.35"/>
</package>
</packages>
<symbols>
<symbol name="SS-52300-001">
<wire x1="-5.08" y1="10.16" x2="5.08" y2="10.16" width="0.254" layer="94"/>
<wire x1="5.08" y1="10.16" x2="5.08" y2="-7.62" width="0.254" layer="94"/>
<wire x1="5.08" y1="-7.62" x2="-5.08" y2="-7.62" width="0.254" layer="94"/>
<wire x1="-5.08" y1="-7.62" x2="-5.08" y2="10.16" width="0.254" layer="94"/>
<text x="-5.08" y="10.922" size="1.778" layer="95">&gt;NAME</text>
<text x="-5.08" y="-10.16" size="1.778" layer="96">&gt;VALUE</text>
<pin name="1" x="-10.16" y="7.62" length="middle" direction="pas"/>
<pin name="2" x="-10.16" y="5.08" length="middle" direction="pas"/>
<pin name="3" x="-10.16" y="2.54" length="middle" direction="pas"/>
<pin name="4" x="-10.16" y="0" length="middle" direction="pas"/>
<pin name="SHIELD" x="-10.16" y="-5.08" length="middle" direction="pas"/>
</symbol>
</symbols>
<devicesets>
<deviceset name="SS-52300-001" prefix="J">
<description>USB 2.0 - B Connector | 1 Port | Right Angle Receptacle | Shielded &lt;a href="https://pricing.snapeda.com/parts/SS-52300-001/Stewart%20Connector/view-part?ref=eda"&gt;Check prices&lt;/a&gt;</description>
<gates>
<gate name="G$1" symbol="SS-52300-001" x="0" y="0"/>
</gates>
<devices>
<device name="" package="BEL_SS-52300-001">
<connects>
<connect gate="G$1" pin="1" pad="1"/>
<connect gate="G$1" pin="2" pad="2"/>
<connect gate="G$1" pin="3" pad="3"/>
<connect gate="G$1" pin="4" pad="4"/>
<connect gate="G$1" pin="SHIELD" pad="S1 S2"/>
</connects>
<technologies>
<technology name="">
<attribute name="Package" value="None"/>
<attribute name="MP" value="SS-52300-001"/>
<attribute name="Availability" value="Warning"/>
<attribute name="Price" value="None"/>
<attribute name="MF" value="Stewart Connector"/>
<attribute name="Purchase-URL" value="https://pricing.snapeda.com/search/part/SS-52300-001/?ref=eda"/>
<attribute name="Description" value="
USB-B (USB TYPE-B) USB 2.0 Receptacle Connector 4 Position Through Hole
"/>
</technology>
</technologies>
</device>
</devices>
</deviceset>
</devicesets>
</library>
</drawing>
</eagle>
